-------------------------------------------------------------------------------
Test set: tests.RozTest
-------------------------------------------------------------------------------
Tests run: 1, Failures: 0, Errors: 0, Skipped: 0, Time elapsed: 21.197 sec
